Crypto Punks Analysis
…
---

## Transactions at the punk level

We can look at how many interactions of each type for each punk as the table shows:

```r
punks_transactions %>%
  group_by(ID, Type) %>%
  summarise(Count = n()) 
```

```
## # A tibble: 31,170 x 3
## # Groups:   ID [10,000]
##       ID Type            Count
##    <dbl> <chr>           <int>
##  1     0 Bid                17
##  2     0 Bid Withdrawn       6
##  3     0 Claimed             1
##  4     0 Offered             3
##  5     0 Sold                3
##  6     0 Transfer            1
##  7     1 Bid                12
##  8     1 Bid Withdrawn       6
##  9     1 Claimed             1
## 10     1 Offer Withdrawn     6
## # … with 31,160 more rows
```
…
---

## Answers 

### 1.

```r
punks_transactions %>%
  group_by(ID) %>%
  summarise(unique_owners = n_distinct(To))
```

```
## # A tibble: 10,000 x 2
##       ID unique_owners
##    <dbl>         <int>
##  1     0             6
##  2     1             9
##  3     2             2
##  4     3             2
##  5     4             2
##  6     5             2
##  7     6             2
##  8     7             2
##  9     8             2
## 10     9             2
## # … with 9,990 more rows
```

---

### 2.

```r
punks_transactions %>%
  filter(Type == "Bid") %>%
  group_by(ID) %>%
  summarise(unique_bidders = n_distinct(From))
```

```
## # A tibble: 4,484 x 2
##       ID unique_bidders
##    <dbl>          <int>
##  1     0              9
##  2     1             10
##  3     2              8
##  4     3              6
##  5     4              5
##  6     5              3
##  7     6              3
##  8     7              6
##  9     8              8
## 10     9              8
## # … with 4,474 more rows
```

---

## Selling Price for each punk

There are a total of 7567 sales and only 3665 punks were involved in these sales. Let's take a look at their prices. 

```r
punks_transactions %>%
  filter(Type == "Sold") %>%
  group_by(ID)
```

```
## # A tibble: 7,567 x 7
## # Groups:   ID [3,665]
##    Type  From      To        Crypto   USD Txn           ID
##    <chr> <chr>     <chr>      <dbl> <dbl> <date>     <dbl>
##  1 Sold  0xf5099e  14715954   25     2822 2018-11-30     0
##  2 Sold  0x00d7c9  10528156    1.6    386 2017-07-07     0
##  3 Sold  0xc352b5  55241       0.98   320 2017-06-23     0
##  4 Sold  EliteCat… 0xcf6165   60    36305 2020-11-30     1
##  5 Sold  0xf5099e  GoWest23   31     5155 2019-04-06     1
##  6 Sold  0xc352b5  0xa0a59c    0.42   107 2017-06-26     1
##  7 Sold  0x582fa7  0x7c00c9…   2.5    234 2018-12-07    14
##  8 Sold  0xd8e806  0x582fa7    1.85   351 2017-07-17    14
##  9 Sold  0xc352b5  0xd8e806    0.9    185 2017-07-13    14
## 10 Sold  0xc352b5  6689278     0.51   105 2017-07-10    33
## # … with 7,557 more rows
```
…
---
To put `first_sold_by_ID` and `last_sold_by_ID` together, we simply use `inner_join()` as follows:

```r
sales_temp <- first_sold_by_ID %>% 
  select(ID, first_price_ETH, first_price_USD) %>% 
  inner_join(last_sold_by_ID, by = c("ID"="ID")) 
sales_temp
```

```
## # A tibble: 3,665 x 9
## # Groups:   ID [3,665]
##       ID first_price_ETH first_price_USD Type  From      To       last_price_ETH
##    <dbl>           <dbl>           <dbl> <chr> <chr>     <chr>             <dbl>
##  1     0            0.98             320 Sold  0xf5099e  14715954          25   
##  2     1            0.42             107 Sold  EliteCat… 0xcf6165          60   
##  3    14            0.9              185 Sold  0x582fa7  0x7c00c…           2.5 
##  4    33            0.51             105 Sold  0xc352b5  6689278            0.51
##  5    89            1.5              336 Sold  jmg       TokenAn…          20.0 
##  6   116            1.2              229 Sold  0xd8e806  5779367            2.4 
##  7   143            6.5             1041 Sold  0xc352b5  MrTpunks           6.5 
##  8   155            7               2708 Sold  Michel_M… DANNY             12   
##  9   169            1                127 Sold  Pranksy   Slats_e…           6.99
## 10   240            2                255 Sold  Pranksy   Slats_e…           7   
## # … with 3,655 more rows, and 2 more variables: last_price_USD <dbl>,
## #   Txn <date>
```
…
