Case Study
…
---

## Answer

### 1.

```r
Epochelapsed %>% 
  group_by(epochelapsed) %>%
  summarise(n = n()) %>% 
  mutate(percentage = n / sum(n)*100)
```

```
## # A tibble: 94 x 3
##    epochelapsed     n percentage
##           <dbl> <int>      <dbl>
##  1            1   156     40.9  
##  2            2    22      5.77 
##  3            3    17      4.46 
##  4            4    11      2.89 
##  5            5    10      2.62 
##  6            6     8      2.10 
##  7            7    13      3.41 
##  8            8     5      1.31 
##  9            9     3      0.787
## 10           10     2      0.525
## # ... with 84 more rows
```
…
