Supervised Learning
…
---

TODO significant coefficients? and interactions?

```r
tidy(glm_rs) %>%
  filter(p.value < 0.05)
```

```
## # A tibble: 22 × 5
##    term                        estimate std.error statistic   p.value
##    <chr>                          <dbl>     <dbl>     <dbl>     <dbl>
##  1 (Intercept)                    5.62    0.171       32.9  1.05e-236
##  2 age                            0.126   0.00223     56.3  0        
##  3 workclassSelf-emp-not-inc     -0.638   0.102       -6.27 3.71e- 10
##  4 workclassSelf-emp-inc         -0.372   0.123       -3.03 2.47e-  3
##  5 education_num                 -0.294   0.0103     -28.6  1.49e-179
##  6 marital_statusWidowed          0.484   0.130        3.72 1.99e-  4
##  7 occupationExec-managerial     -0.297   0.0723      -4.10 4.12e-  5
##  8 occupationHandlers-cleaners   -0.253   0.0989      -2.56 1.05e-  2
##  9 occupationProf-specialty      -0.434   0.0738      -5.88 4.16e-  9
## 10 occupationOther-service       -0.514   0.0716      -7.18 6.91e- 13
## # … with 12 more rows
```
…
